 <svg version="1.0" xmlns="http://www.w3.org/2000/svg" width="700.000000pt" height="955.000000pt" viewBox="0 0 700.000000 955.000000" preserveAspectRatio="xMidYMid meet">
<metadata>
Created by potrace 1.12, written by Peter Selinger 2001-2015
</metadata>
<g transform="translate(0.000000,955.000000) scale(0.100000,-0.100000)" fill="#000000" stroke="none">
<path d="M6281 8824 c0 -11 3 -14 6 -6 3 7 2 16 -1 19 -3 4 -6 -2 -5 -13z"></path>
<path d="M6291 8784 c0 -11 3 -14 6 -6 3 7 2 16 -1 19 -3 4 -6 -2 -5 -13z"></path>
<path d="M6302 8740 c0 -14 2 -19 5 -12 2 6 2 18 0 25 -3 6 -5 1 -5 -13z"></path>
<path d="M6326 8650 c4 -14 13 -38 20 -55 11 -24 13 -25 8 -5 -4 14 -13 39
-20 55 -11 24 -13 25 -8 5z"></path>
<path d="M3535 8610 c-3 -5 -4 -10 -1 -10 2 0 12 -3 20 -6 12 -5 15 -2 10 10
-7 18 -20 21 -29 6z"></path>
<path d="M3600 8501 c0 -6 4 -13 10 -16 6 -3 7 1 4 9 -7 18 -14 21 -14 7z"></path>
<path d="M3631 8435 c0 -5 6 -21 14 -35 8 -14 14 -20 14 -15 0 6 -6 21 -14 35
-8 14 -14 21 -14 15z"></path>
<path d="M6410 8415 c0 -5 5 -17 10 -25 5 -8 10 -10 10 -5 0 6 -5 17 -10 25
-5 8 -10 11 -10 5z"></path>
<path d="M6833 8403 c9 -2 23 -2 30 0 6 3 -1 5 -18 5 -16 0 -22 -2 -12 -5z"></path>
<path d="M6281 8364 c0 -11 3 -14 6 -6 3 7 2 16 -1 19 -3 4 -6 -2 -5 -13z"></path>
<path d="M6698 8373 c6 -2 18 -2 25 0 6 3 1 5 -13 5 -14 0 -19 -2 -12 -5z"></path>
<path d="M6658 8363 c7 -3 16 -2 19 1 4 3 -2 6 -13 5 -11 0 -14 -3 -6 -6z"></path>
<path d="M6443 8340 c2 -8 -5 -20 -17 -27 -14 -8 -16 -12 -6 -12 30 -1 43 15
31 35 -7 11 -10 13 -8 4z"></path>
<path d="M6478 8323 c7 -3 16 -2 19 1 4 3 -2 6 -13 5 -11 0 -14 -3 -6 -6z"></path>
<path d="M6292 8285 c0 -16 2 -22 5 -12 2 9 2 23 0 30 -3 6 -5 -1 -5 -18z"></path>
<path d="M6838 8303 c7 -3 16 -2 19 1 4 3 -2 6 -13 5 -11 0 -14 -3 -6 -6z"></path>
<path d="M6460 8295 c0 -5 5 -17 10 -25 5 -8 10 -10 10 -5 0 6 -5 17 -10 25
-5 8 -10 11 -10 5z"></path>
<path d="M6344 8274 c-18 -14 -18 -14 6 -3 31 14 36 19 24 19 -6 0 -19 -7 -30
-16z"></path>
<path d="M6970 8266 c0 -2 8 -10 18 -17 15 -13 16 -12 3 4 -13 16 -21 21 -21
13z"></path>
<path d="M6480 8245 c0 -5 5 -17 10 -25 5 -8 10 -10 10 -5 0 6 -5 17 -10 25
-5 8 -10 11 -10 5z"></path>
<path d="M6251 8191 c-26 -49 -26 -79 -2 -109 16 -22 19 -23 34 -7 9 9 17 22
16 28 0 7 -7 2 -16 -11 -15 -21 -16 -21 -29 -5 -19 26 -17 63 7 102 11 18 18
35 15 38 -2 3 -14 -13 -25 -36z"></path>
<path d="M6614 8214 c-18 -14 -18 -15 4 -4 12 6 22 13 22 15 0 8 -5 6 -26 -11z"></path>
<path d="M6506 8182 c3 -13 0 -31 -7 -40 -11 -14 -11 -15 1 -4 12 10 17 8 27
-10 13 -22 13 -22 7 5 -3 15 -2 27 2 27 5 0 20 10 34 21 l25 21 -36 -21 -36
-21 -12 23 -11 22 6 -23z"></path>
<path d="M6798 8153 c6 -2 18 -2 25 0 6 3 1 5 -13 5 -14 0 -19 -2 -12 -5z"></path>
<path d="M6758 8143 c7 -3 16 -2 19 1 4 3 -2 6 -13 5 -11 0 -14 -3 -6 -6z"></path>
<path d="M6459 8113 c-13 -16 -12 -17 4 -4 9 7 17 15 17 17 0 8 -8 3 -21 -13z"></path>
<path d="M6688 8123 c7 -3 16 -2 19 1 4 3 -2 6 -13 5 -11 0 -14 -3 -6 -6z"></path>
<path d="M6404 8068 l-29 -33 33 29 c30 28 37 36 29 36 -2 0 -16 -15 -33 -32z"></path>
<path d="M6547 8084 c2 -7 11 -10 19 -7 19 7 18 10 -5 16 -13 3 -18 1 -14 -9z"></path>
<path d="M6500 8060 c-18 -12 -2 -12 25 0 13 6 15 9 5 9 -8 0 -22 -4 -30 -9z"></path>
<path d="M6422 8025 c-49 -28 -99 -65 -87 -65 5 0 22 11 39 24 17 12 49 33 71
44 22 12 36 21 30 21 -5 1 -29 -10 -53 -24z"></path>
<path d="M6315 7994 l-50 -46 53 43 c47 38 58 49 49 49 -1 0 -25 -21 -52 -46z"></path>
<path d="M6580 8005 c0 -5 5 -17 10 -25 5 -8 10 -10 10 -5 0 6 -5 17 -10 25
-5 8 -10 11 -10 5z"></path>
<path d="M3632 7980 c0 -14 2 -19 5 -12 2 6 2 18 0 25 -3 6 -5 1 -5 -13z"></path>
<path d="M4512 7971 c-7 -4 -25 -6 -40 -4 -21 4 -24 2 -12 -6 12 -9 13 -11 1
-11 -8 0 -12 -2 -9 -5 6 -6 69 14 83 26 12 12 -5 12 -23 0z"></path>
<path d="M4408 7953 c6 -2 18 -2 25 0 6 3 1 5 -13 5 -14 0 -19 -2 -12 -5z"></path>
<path d="M4348 7943 c6 -2 18 -2 25 0 6 3 1 5 -13 5 -14 0 -19 -2 -12 -5z"></path>
<path d="M6284 7928 l-19 -23 25 20 c14 11 27 21 29 22 2 2 0 3 -6 3 -5 0 -18
-10 -29 -22z"></path>
<path d="M3641 7924 c0 -11 3 -14 6 -6 3 7 2 16 -1 19 -3 4 -6 -2 -5 -13z"></path>
<path d="M4298 7933 c7 -3 16 -2 19 1 4 3 -2 6 -13 5 -11 0 -14 -3 -6 -6z"></path>
<path d="M4248 7923 c6 -2 18 -2 25 0 6 3 1 5 -13 5 -14 0 -19 -2 -12 -5z"></path>
<path d="M4208 7913 c7 -3 16 -2 19 1 4 3 -2 6 -13 5 -11 0 -14 -3 -6 -6z"></path>
<path d="M6226 7904 c-9 -24 -8 -26 14 -14 11 6 18 15 15 21 -9 14 -22 11 -29
-7z"></path>
<path d="M6620 7915 c0 -5 5 -17 10 -25 5 -8 10 -10 10 -5 0 6 -5 17 -10 25
-5 8 -10 11 -10 5z"></path>
<path d="M4103 7887 c-34 -12 -65 -25 -69 -29 -6 -7 89 23 146 45 44 17 -22 3
-77 -16z"></path>
<path d="M3651 7854 c0 -11 3 -14 6 -6 3 7 2 16 -1 19 -3 4 -6 -2 -5 -13z"></path>
<path d="M3933 7814 c-34 -19 -65 -39 -69 -45 -3 -6 13 2 37 17 24 15 61 35
83 45 23 10 34 19 26 19 -8 0 -43 -16 -77 -36z"></path>
<path d="M6951 7805 c15 -15 31 -26 37 -24 5 2 -7 14 -27 27 l-36 24 26 -27z"></path>
<path d="M3662 7790 c0 -14 2 -19 5 -12 2 6 2 18 0 25 -3 6 -5 1 -5 -13z"></path>
<path d="M6680 7765 c0 -5 5 -17 10 -25 5 -8 10 -10 10 -5 0 6 -5 17 -10 25
-5 8 -10 11 -10 5z"></path>
<path d="M3798 7713 c-25 -27 -60 -70 -77 -97 l-30 -48 -3 53 c-3 49 -4 47 -8
-24 -3 -42 -4 -77 -3 -77 1 0 16 27 34 60 17 32 56 86 86 120 65 72 66 79 1
13z"></path>
<path d="M6700 7715 c0 -5 5 -17 10 -25 5 -8 10 -10 10 -5 0 6 -5 17 -10 25
-5 8 -10 11 -10 5z"></path>
<path d="M4502 7656 c-28 -20 -30 -25 -15 -30 9 -4 14 -4 10 0 -4 4 8 18 25
31 41 30 23 29 -20 -1z"></path>
<path d="M6720 7665 c0 -5 5 -17 10 -25 5 -8 10 -10 10 -5 0 6 -5 17 -10 25
-5 8 -10 11 -10 5z"></path>
<path d="M4278 7653 c7 -3 16 -2 19 1 4 3 -2 6 -13 5 -11 0 -14 -3 -6 -6z"></path>
<path d="M4175 7620 c-3 -6 1 -7 9 -4 18 7 21 14 7 14 -6 0 -13 -4 -16 -10z"></path>
<path d="M4405 7605 c-27 -13 -47 -24 -43 -24 10 -1 98 38 98 44 0 7 3 8 -55
-20z"></path>
<path d="M4118 7589 c-21 -11 -38 -22 -38 -24 0 -3 18 4 40 15 22 11 40 23 40
25 0 7 0 7 -42 -16z"></path>
<path d="M4295 7561 c-22 -11 -35 -19 -30 -19 14 -1 93 36 80 37 -5 0 -28 -8
-50 -18z"></path>
<path d="M6750 7575 c0 -5 5 -17 10 -25 5 -8 10 -10 10 -5 0 6 -5 17 -10 25
-5 8 -10 11 -10 5z"></path>
<path d="M4593 7519 c11 -22 22 -38 24 -35 5 5 -24 63 -36 70 -4 3 1 -13 12
-35z"></path>
<path d="M4171 7512 c-35 -14 -59 -28 -54 -29 5 -2 39 10 74 26 79 36 67 38
-20 3z"></path>
<path d="M3914 7464 c-18 -14 -18 -15 4 -4 12 6 22 13 22 15 0 8 -5 6 -26 -11z"></path>
<path d="M4045 7460 c-22 -11 -29 -17 -15 -14 29 8 80 33 65 33 -5 0 -28 -8
-50 -19z"></path>
<path d="M3864 7434 c-18 -14 -18 -15 4 -4 12 6 22 13 22 15 0 8 -5 6 -26 -11z"></path>
<path d="M3975 7430 c-16 -7 -17 -9 -3 -9 9 -1 20 4 23 9 7 11 7 11 -20 0z"></path>
<path d="M3814 7404 c-18 -14 -18 -15 4 -4 12 6 22 13 22 15 0 8 -5 6 -26 -11z"></path>
<path d="M3910 7404 l-25 -15 25 7 c14 3 29 10 35 15 15 14 -7 10 -35 -7z"></path>
<path d="M4643 7375 c0 -22 2 -30 4 -17 2 12 2 30 0 40 -3 9 -5 -1 -4 -23z"></path>
<path d="M3753 7369 c-35 -22 -46 -37 -15 -20 22 13 58 40 52 41 -3 0 -20 -10
-37 -21z"></path>
<path d="M3795 7350 c-3 -5 -2 -10 4 -10 5 0 13 5 16 10 3 6 2 10 -4 10 -5 0
-13 -4 -16 -10z"></path>
<path d="M6831 7334 c0 -11 3 -14 6 -6 3 7 2 16 -1 19 -3 4 -6 -2 -5 -13z"></path>
<path d="M3636 7289 c-36 -28 -66 -55 -66 -60 0 -6 26 5 58 22 86 49 118 69
107 69 -5 0 -23 -9 -40 -20 -45 -30 -55 -23 -15 10 57 48 28 34 -44 -21z m14
-13 c0 -3 -4 -8 -10 -11 -5 -3 -10 -1 -10 4 0 6 5 11 10 11 6 0 10 -2 10 -4z"></path>
<path d="M3755 7330 c-3 -6 1 -7 9 -4 18 7 21 14 7 14 -6 0 -13 -4 -16 -10z"></path>
<path d="M4643 7265 c0 -22 2 -30 4 -17 2 12 2 30 0 40 -3 9 -5 -1 -4 -23z"></path>
<path d="M1302 7120 c0 -8 6 -31 13 -50 7 -19 13 -28 13 -20 0 8 -6 31 -13 50
-7 19 -13 28 -13 20z"></path>
<path d="M4592 7085 c-12 -27 -40 -33 -62 -12 -12 10 -12 9 -1 -5 19 -25 48
-22 67 7 9 14 15 28 12 30 -3 3 -10 -6 -16 -20z"></path>
<path d="M1351 6950 c0 -8 4 -24 9 -35 5 -13 9 -14 9 -5 0 8 -4 24 -9 35 -5
13 -9 14 -9 5z"></path>
<path d="M5900 6305 c0 -5 5 -17 10 -25 5 -8 10 -10 10 -5 0 6 -5 17 -10 25
-5 8 -10 11 -10 5z"></path>
<path d="M5920 6255 c0 -5 5 -17 10 -25 5 -8 10 -10 10 -5 0 6 -5 17 -10 25
-5 8 -10 11 -10 5z"></path>
<path d="M1828 6213 c29 -2 74 -2 100 0 26 2 2 3 -53 3 -55 0 -76 -1 -47 -3z"></path>
<path d="M1718 6203 c7 -3 16 -2 19 1 4 3 -2 6 -13 5 -11 0 -14 -3 -6 -6z"></path>
<path d="M1991 6205 c9 -8 100 -11 105 -3 3 4 -21 8 -52 8 -32 0 -55 -2 -53
-5z"></path>
<path d="M5941 6205 c0 -5 6 -21 14 -35 8 -14 14 -20 14 -15 0 6 -6 21 -14 35
-8 14 -14 21 -14 15z"></path>
<path d="M1678 6193 c7 -3 16 -2 19 1 4 3 -2 6 -13 5 -11 0 -14 -3 -6 -6z"></path>
<path d="M1371 6174 c0 -11 3 -14 6 -6 3 7 2 16 -1 19 -3 4 -6 -2 -5 -13z"></path>
<path d="M1559 6145 c-20 -14 -46 -45 -58 -68 -12 -23 -16 -33 -9 -22 7 11 34
41 60 68 27 26 47 47 45 47 -1 0 -18 -11 -38 -25z"></path>
<path d="M5976 6120 c3 -14 11 -32 16 -40 6 -10 7 -7 2 10 -3 14 -11 32 -16
40 -6 10 -7 7 -2 -10z"></path>
<path d="M6000 6055 c0 -5 5 -17 10 -25 5 -8 10 -10 10 -5 0 6 -5 17 -10 25
-5 8 -10 11 -10 5z"></path>
<path d="M1466 6015 c-3 -9 -6 -22 -5 -28 0 -7 5 -1 10 12 5 13 8 26 5 28 -2
2 -6 -3 -10 -12z"></path>
<path d="M1451 5944 c0 -11 3 -14 6 -6 3 7 2 16 -1 19 -3 4 -6 -2 -5 -13z"></path>
<path d="M1430 5920 c0 -5 5 -10 11 -10 5 0 7 5 4 10 -3 6 -8 10 -11 10 -2 0
-4 -4 -4 -10z"></path>
<path d="M1665 5900 c-3 -5 -1 -10 4 -10 6 0 11 5 11 10 0 6 -2 10 -4 10 -3 0
-8 -4 -11 -10z"></path>
<path d="M2015 5837 c29 -30 67 -80 84 -113 16 -32 30 -54 30 -49 1 6 -13 34
-29 64 -16 29 -27 58 -23 64 3 5 2 7 -4 4 -5 -3 -25 10 -44 29 -19 20 -42 40
-51 45 -9 5 7 -15 37 -44z"></path>
<path d="M6086 5867 c3 -10 9 -15 12 -12 3 3 0 11 -7 18 -10 9 -11 8 -5 -6z"></path>
<path d="M1455 5810 c-3 -6 1 -7 9 -4 18 7 21 14 7 14 -6 0 -13 -4 -16 -10z"></path>
<path d="M2000 5784 c-33 -13 -33 -14 -5 -8 17 3 34 10 40 15 11 11 8 11 -35
-7z"></path>
<path d="M1938 5763 c7 -3 16 -2 19 1 4 3 -2 6 -13 5 -11 0 -14 -3 -6 -6z"></path>
<path d="M1898 5753 c7 -3 16 -2 19 1 4 3 -2 6 -13 5 -11 0 -14 -3 -6 -6z"></path>
<path d="M1848 5743 c6 -2 18 -2 25 0 6 3 1 5 -13 5 -14 0 -19 -2 -12 -5z"></path>
<path d="M1303 5714 l-28 -25 33 22 c17 13 32 24 32 26 0 8 -11 1 -37 -23z"></path>
<path d="M1808 5733 c7 -3 16 -2 19 1 4 3 -2 6 -13 5 -11 0 -14 -3 -6 -6z"></path>
<path d="M1758 5723 c6 -2 18 -2 25 0 6 3 1 5 -13 5 -14 0 -19 -2 -12 -5z"></path>
<path d="M1703 5713 c9 -2 23 -2 30 0 6 3 -1 5 -18 5 -16 0 -22 -2 -12 -5z"></path>
<path d="M1648 5703 c6 -2 18 -2 25 0 6 3 1 5 -13 5 -14 0 -19 -2 -12 -5z"></path>
<path d="M1598 5693 c6 -2 18 -2 25 0 6 3 1 5 -13 5 -14 0 -19 -2 -12 -5z"></path>
<path d="M6770 5680 c-14 -10 -22 -21 -19 -24 3 -3 16 5 29 19 28 30 24 32
-10 5z"></path>
<path d="M1548 5683 c7 -3 16 -2 19 1 4 3 -2 6 -13 5 -11 0 -14 -3 -6 -6z"></path>
<path d="M1488 5673 c6 -2 18 -2 25 0 6 3 1 5 -13 5 -14 0 -19 -2 -12 -5z"></path>
<path d="M1448 5663 c7 -3 16 -2 19 1 4 3 -2 6 -13 5 -11 0 -14 -3 -6 -6z"></path>
<path d="M1388 5653 c6 -2 18 -2 25 0 6 3 1 5 -13 5 -14 0 -19 -2 -12 -5z"></path>
<path d="M6690 5629 c-25 -17 -52 -38 -60 -47 -8 -8 7 0 33 19 40 28 50 31 57
19 6 -8 10 -13 11 -10 2 7 6 50 5 50 0 0 -21 -14 -46 -31z"></path>
<path d="M1212 5638 c-19 -19 -14 -28 16 -27 24 2 24 2 4 6 -19 4 -21 7 -11
19 14 17 8 19 -9 2z"></path>
<path d="M1338 5643 c7 -3 16 -2 19 1 4 3 -2 6 -13 5 -11 0 -14 -3 -6 -6z"></path>
<path d="M1268 5623 c7 -3 16 -2 19 1 4 3 -2 6 -13 5 -11 0 -14 -3 -6 -6z"></path>
<path d="M2151 5584 c0 -11 3 -14 6 -6 3 7 2 16 -1 19 -3 4 -6 -2 -5 -13z"></path>
<path d="M6584 5548 l-19 -23 23 19 c12 11 22 21 22 23 0 8 -8 2 -26 -19z"></path>
<path d="M2163 5465 c0 -38 2 -53 4 -32 2 20 2 52 0 70 -2 17 -4 1 -4 -38z"></path>
<path d="M6517 5491 c-19 -22 -41 -50 -48 -63 -15 -29 -13 -27 45 45 53 66 55
75 3 18z"></path>
<path d="M1982 5380 c0 -14 2 -19 5 -12 2 6 2 18 0 25 -3 6 -5 1 -5 -13z"></path>
<path d="M6424 5344 c-8 -20 -13 -38 -11 -40 2 -2 11 14 20 36 19 50 12 53 -9
4z"></path>
<path d="M2152 5350 c0 -14 2 -19 5 -12 2 6 2 18 0 25 -3 6 -5 1 -5 -13z"></path>
<path d="M6940 5325 c40 -48 43 -51 32 -30 -6 11 -21 29 -34 40 -22 19 -22 19
2 -10z"></path>
<path d="M1992 5310 c0 -14 2 -19 5 -12 2 6 2 18 0 25 -3 6 -5 1 -5 -13z"></path>
<path d="M6674 5274 c-18 -14 -18 -15 4 -4 12 6 22 13 22 15 0 8 -5 6 -26 -11z"></path>
<path d="M6819 5263 c-12 -16 -12 -17 2 -6 9 7 20 9 24 5 5 -4 5 -1 1 6 -9 16
-11 15 -27 -5z"></path>
<path d="M6986 5257 c3 -10 9 -15 12 -12 3 3 0 11 -7 18 -10 9 -11 8 -5 -6z"></path>
<path d="M6381 5214 c0 -11 3 -14 6 -6 3 7 2 16 -1 19 -3 4 -6 -2 -5 -13z"></path>
<path d="M2029 5162 c17 -32 39 -38 59 -16 16 17 16 17 -1 4 -15 -11 -21 -10
-44 11 l-26 24 12 -23z"></path>
<path d="M6477 5146 c-59 -41 -73 -55 -29 -30 33 19 91 63 82 63 -3 0 -27 -15
-53 -33z"></path>
<path d="M6623 5139 c-35 -22 -46 -37 -15 -20 22 13 58 40 52 41 -3 0 -20 -10
-37 -21z"></path>
<path d="M6312 5115 c15 -16 20 -17 30 -6 11 11 10 13 0 7 -7 -4 -21 -2 -30 5
-15 12 -15 11 0 -6z"></path>
<path d="M6548 5094 c-38 -20 -36 -28 2 -9 17 9 30 18 30 20 0 7 -1 6 -32 -11z"></path>
<path d="M6375 5074 l-30 -26 33 22 c17 12 32 23 32 26 0 7 -4 5 -35 -22z"></path>
<path d="M3425 5044 c9 -17 26 -41 37 -55 17 -20 16 -18 -3 16 -12 22 -29 47
-37 55 -10 11 -10 6 3 -16z"></path>
<path d="M6484 5055 c-10 -8 -14 -15 -8 -15 6 0 17 7 24 15 16 19 9 19 -16 0z"></path>
<path d="M6309 5023 l-24 -28 28 24 c15 14 27 26 27 28 0 8 -8 1 -31 -24z"></path>
<path d="M6408 5014 c-38 -20 -36 -28 2 -9 17 9 30 18 30 20 0 7 -1 6 -32 -11z"></path>
<path d="M6253 4978 c-11 -13 -24 -30 -28 -38 -8 -16 -6 -14 34 33 14 15 22
27 19 27 -2 0 -14 -10 -25 -22z"></path>
<path d="M6350 4980 c-9 -6 -10 -10 -3 -10 6 0 15 5 18 10 8 12 4 12 -15 0z"></path>
<path d="M6293 4950 c-18 -11 -33 -22 -33 -25 0 -2 16 5 35 16 19 12 35 23 35
25 0 6 -3 5 -37 -16z"></path>
<path d="M3490 4940 c6 -11 13 -20 16 -20 2 0 0 9 -6 20 -6 11 -13 20 -16 20
-2 0 0 -9 6 -20z"></path>
<path d="M6179 4898 c-12 -22 -4 -22 40 1 l33 18 -31 0 c-21 0 -36 -7 -42 -19z"></path>
<path d="M3550 4840 c6 -11 13 -20 16 -20 2 0 0 9 -6 20 -6 11 -13 20 -16 20
-2 0 0 -9 6 -20z"></path>
<path d="M6970 4843 c0 -15 18 -35 23 -27 3 5 -1 15 -9 22 -8 7 -14 9 -14 5z"></path>
<path d="M3630 4700 c6 -11 13 -20 16 -20 2 0 0 9 -6 20 -6 11 -13 20 -16 20
-2 0 0 -9 6 -20z"></path>
<path d="M3685 4600 c9 -16 18 -30 21 -30 2 0 -2 14 -11 30 -9 17 -18 30 -21
30 -2 0 2 -13 11 -30z"></path>
<path d="M3820 4350 c6 -11 13 -20 16 -20 2 0 0 9 -6 20 -6 11 -13 20 -16 20
-2 0 0 -9 6 -20z"></path>
<path d="M4580 4010 c9 -6 3 -13 -19 -24 -17 -9 -31 -19 -31 -22 0 -6 48 19
74 39 19 14 19 15 -8 15 -17 0 -23 -3 -16 -8z"></path>
<path d="M4414 3887 c-120 -89 -292 -253 -354 -336 -54 -72 -81 -90 -107 -70
-16 13 -17 12 -4 -3 26 -34 49 -20 121 71 80 102 254 264 371 346 70 50 88 65
76 65 -2 0 -48 -33 -103 -73z"></path>
<path d="M3860 3661 c0 -6 4 -13 10 -16 6 -3 7 1 4 9 -7 18 -14 21 -14 7z"></path>
<path d="M4845 3630 c10 -11 20 -20 23 -20 3 0 -3 9 -13 20 -10 11 -20 20 -23
20 -3 0 3 -9 13 -20z"></path>
<path d="M3910 3544 c0 -6 7 -19 16 -30 14 -18 14 -18 3 6 -14 31 -19 36 -19
24z"></path>
<path d="M4740 3514 c-30 -19 -50 -34 -44 -34 5 0 34 16 64 35 30 19 51 34 45
34 -5 -1 -35 -16 -65 -35z"></path>
<path d="M4655 3470 c-16 -7 -17 -9 -3 -9 9 -1 20 4 23 9 7 11 7 11 -20 0z"></path>
<path d="M4555 3440 c-13 -5 -14 -9 -5 -9 8 0 24 4 35 9 13 5 14 9 5 9 -8 0
-24 -4 -35 -9z"></path>
<path d="M4445 3410 c-33 -10 -51 -18 -40 -19 11 0 45 8 75 19 71 23 44 23
-35 0z"></path>
<path d="M4315 3380 c-18 -8 -18 -9 5 -9 14 0 34 4 45 9 18 8 18 9 -5 9 -14 0
-34 -4 -45 -9z"></path>
<path d="M4245 3365 c-5 -2 -30 -9 -54 -15 -23 -6 -41 -13 -39 -15 2 -2 35 4
73 15 39 10 61 18 50 18 -11 0 -24 -1 -30 -3z"></path>
<path d="M4961 3354 c0 -11 3 -14 6 -6 3 7 2 16 -1 19 -3 4 -6 -2 -5 -13z"></path>
<path d="M4079 3333 c-13 -16 -12 -17 4 -4 16 13 21 21 13 21 -2 0 -10 -8 -17
-17z"></path>
<path d="M4095 3315 c-25 -12 -26 -14 -5 -9 28 7 60 23 45 23 -5 0 -23 -6 -40
-14z"></path>
<path d="M3976 3262 c-38 -26 -72 -54 -74 -62 -3 -8 12 0 32 18 21 18 58 43
82 55 24 11 44 25 44 29 0 14 -14 8 -84 -40z"></path>
<path d="M4972 3275 c0 -16 2 -22 5 -12 2 9 2 23 0 30 -3 6 -5 -1 -5 -18z"></path>
<path d="M4972 3030 c0 -14 2 -19 5 -12 2 6 2 18 0 25 -3 6 -5 1 -5 -13z"></path>
<path d="M4951 2958 c-15 -49 -46 -88 -72 -88 -9 0 -24 10 -34 23 -17 22 -17
22 -2 -3 21 -37 60 -38 85 -3 21 30 47 101 40 109 -3 2 -10 -15 -17 -38z"></path>
<path d="M5470 1856 c0 -2 7 -6 15 -10 8 -3 15 -1 15 4 0 6 -7 10 -15 10 -8 0
-15 -2 -15 -4z"></path>
<path d="M1433 1795 c0 -27 2 -38 4 -22 2 15 2 37 0 50 -2 12 -4 0 -4 -28z"></path>
<path d="M5560 1770 c17 -22 34 -40 37 -40 2 0 -10 18 -27 40 -17 22 -34 40
-37 40 -2 0 10 -18 27 -40z"></path>
<path d="M1431 1724 c0 -11 3 -14 6 -6 3 7 2 16 -1 19 -3 4 -6 -2 -5 -13z"></path>
<path d="M5620 1686 c0 -2 8 -10 18 -17 15 -13 16 -12 3 4 -13 16 -21 21 -21
13z"></path>
<path d="M5650 1646 c0 -2 8 -10 18 -17 15 -13 16 -12 3 4 -13 16 -21 21 -21
13z"></path>
<path d="M1444 1420 c0 -107 2 -151 3 -97 2 53 2 141 0 195 -1 53 -3 9 -3 -98z"></path>
<path d="M5720 1550 c12 -16 24 -30 26 -30 3 0 -4 14 -16 30 -12 17 -24 30
-26 30 -3 0 4 -13 16 -30z"></path>
<path d="M2286 1493 c-11 -3 -27 -12 -35 -21 -15 -14 -14 -15 9 -9 14 4 30 7
36 7 6 0 11 7 11 15 0 8 -1 14 -1 14 -1 -1 -10 -4 -20 -6z"></path>
<path d="M2358 1493 c7 -3 16 -2 19 1 4 3 -2 6 -13 5 -11 0 -14 -3 -6 -6z"></path>
<path d="M2183 1453 c9 -2 23 -2 30 0 6 3 -1 5 -18 5 -16 0 -22 -2 -12 -5z"></path>
<path d="M2083 1443 c15 -2 39 -2 55 0 15 2 2 4 -28 4 -30 0 -43 -2 -27 -4z"></path>
<path d="M1968 1433 c18 -2 45 -2 60 0 15 2 0 4 -33 4 -33 0 -45 -2 -27 -4z"></path>
<path d="M1825 1420 c-18 -8 -17 -9 8 -9 16 -1 26 3 22 9 -3 6 -7 10 -8 9 -1
0 -11 -4 -22 -9z"></path>
<path d="M1878 1423 c6 -2 18 -2 25 0 6 3 1 5 -13 5 -14 0 -19 -2 -12 -5z"></path>
<path d="M1778 1403 c7 -3 16 -2 19 1 4 3 -2 6 -13 5 -11 0 -14 -3 -6 -6z"></path>
<path d="M1675 1382 c-67 -23 -134 -63 -174 -104 -32 -33 -81 -116 -81 -139 0
-7 14 15 30 49 49 96 127 156 255 193 33 10 51 18 40 18 -11 0 -43 -7 -70 -17z"></path>
<path d="M2318 1183 c7 -3 16 -2 19 1 4 3 -2 6 -13 5 -11 0 -14 -3 -6 -6z"></path>
<path d="M2370 1164 c14 -7 19 -13 11 -14 -8 0 -12 -2 -10 -5 9 -8 50 7 46 18
-1 5 -18 11 -37 12 -34 3 -34 3 -10 -11z"></path>
<path d="M1868 1143 c7 -3 16 -2 19 1 4 3 -2 6 -13 5 -11 0 -14 -3 -6 -6z"></path>
<path d="M2287 1123 c-32 -9 -56 -17 -54 -20 6 -5 116 23 125 31 8 8 -4 6 -71
-11z"></path>
<path d="M2450 1136 c0 -2 8 -10 18 -17 15 -13 16 -12 3 4 -13 16 -21 21 -21
13z"></path>
<path d="M1728 1103 c7 -3 16 -2 19 1 4 3 -2 6 -13 5 -11 0 -14 -3 -6 -6z"></path>
<path d="M2525 1068 c22 -27 41 -48 43 -48 7 0 -36 56 -59 75 -12 11 -5 -1 16
-27z"></path>
<path d="M2198 1093 c7 -3 16 -2 19 1 4 3 -2 6 -13 5 -11 0 -14 -3 -6 -6z"></path>
<path d="M2138 1083 c6 -2 18 -2 25 0 6 3 1 5 -13 5 -14 0 -19 -2 -12 -5z"></path>
<path d="M6572 1069 c-14 -21 -115 -74 -210 -109 -34 -12 -61 -24 -59 -26 2
-3 34 7 71 21 127 48 241 114 220 128 -6 3 -15 -3 -22 -14z"></path>
<path d="M2063 1073 c9 -2 23 -2 30 0 6 3 -1 5 -18 5 -16 0 -22 -2 -12 -5z"></path>
<path d="M1580 1055 c-14 -8 -20 -14 -15 -14 6 0 21 6 35 14 14 8 21 14 15 14
-5 0 -21 -6 -35 -14z"></path>
<path d="M1953 1063 c9 -2 25 -2 35 0 9 3 1 5 -18 5 -19 0 -27 -2 -17 -5z"></path>
<path d="M1858 1053 c12 -2 32 -2 45 0 12 2 2 4 -23 4 -25 0 -35 -2 -22 -4z"></path>
<path d="M1788 1043 c6 -2 18 -2 25 0 6 3 1 5 -13 5 -14 0 -19 -2 -12 -5z"></path>
<path d="M1698 1033 c6 -2 18 -2 25 0 6 3 1 5 -13 5 -14 0 -19 -2 -12 -5z"></path>
<path d="M1658 1023 c7 -3 16 -2 19 1 4 3 -2 6 -13 5 -11 0 -14 -3 -6 -6z"></path>
<path d="M1497 1007 c-3 -8 3 -13 17 -14 11 0 15 1 8 4 -6 3 -10 9 -6 14 3 5
1 9 -4 9 -6 0 -12 -6 -15 -13z"></path>
<path d="M1608 1013 c7 -3 16 -2 19 1 4 3 -2 6 -13 5 -11 0 -14 -3 -6 -6z"></path>
<path d="M1568 1003 c7 -3 16 -2 19 1 4 3 -2 6 -13 5 -11 0 -14 -3 -6 -6z"></path>
<path d="M2594 956 c12 -30 23 -52 25 -50 5 5 -29 93 -38 99 -5 2 1 -20 13
-49z"></path>
<path d="M6174 885 c-39 -19 -93 -54 -120 -78 -27 -24 -60 -51 -74 -60 -13 -9
-20 -17 -14 -17 6 0 39 25 74 55 53 46 150 102 220 128 13 5 13 5 0 6 -8 0
-47 -15 -86 -34z"></path>
<path d="M2621 874 c0 -11 3 -14 6 -6 3 7 2 16 -1 19 -3 4 -6 -2 -5 -13z"></path>
<path d="M6610 816 c0 -2 7 -7 16 -10 8 -3 12 -2 9 4 -6 10 -25 14 -25 6z"></path>
<path d="M5877 785 c12 -22 52 -61 56 -54 1 2 -13 20 -32 39 -19 19 -29 26
-24 15z"></path>
<path d="M6650 797 c0 -3 17 -17 37 -33 20 -15 33 -23 29 -16 -8 13 -66 56
-66 49z"></path>
<path d="M2621 754 c0 -11 3 -14 6 -6 3 7 2 16 -1 19 -3 4 -6 -2 -5 -13z"></path>
<path d="M6250 740 c6 -11 13 -20 16 -20 2 0 0 9 -6 20 -6 11 -13 20 -16 20
-2 0 0 -9 6 -20z"></path>
<path d="M6418 703 c7 -3 16 -2 19 1 4 3 -2 6 -13 5 -11 0 -14 -3 -6 -6z"></path>
<path d="M6766 685 c9 -14 21 -25 27 -25 6 0 0 11 -13 25 -13 14 -25 25 -27
25 -2 0 4 -11 13 -25z"></path>
<path d="M6338 693 c7 -3 16 -2 19 1 4 3 -2 6 -13 5 -11 0 -14 -3 -6 -6z"></path>
<path d="M2591 652 c-15 -35 -68 -88 -96 -95 -17 -4 -17 -5 3 -6 15 -1 35 11
54 31 31 33 62 87 55 94 -2 3 -10 -8 -16 -24z"></path>
<path d="M6238 673 c7 -3 16 -2 19 1 4 3 -2 6 -13 5 -11 0 -14 -3 -6 -6z"></path>
<path d="M6188 663 c6 -2 18 -2 25 0 6 3 1 5 -13 5 -14 0 -19 -2 -12 -5z"></path>
<path d="M6135 650 c-13 -6 -15 -9 -5 -9 8 0 22 4 30 9 18 12 2 12 -25 0z"></path>
<path d="M6073 630 c-34 -14 -28 -21 7 -9 17 6 30 13 30 15 0 6 -12 4 -37 -6z"></path>
<path d="M6771 607 c-13 -21 -12 -21 5 -5 10 10 16 20 13 22 -3 3 -11 -5 -18
-17z"></path>
<path d="M6015 600 c-3 -6 1 -7 9 -4 18 7 21 14 7 14 -6 0 -13 -4 -16 -10z"></path>
<path d="M2416 585 c6 -15 43 -40 49 -33 1 2 -11 13 -26 26 -21 17 -27 19 -23
7z"></path>
<path d="M6920 596 c0 -2 8 -10 18 -17 15 -13 16 -12 3 4 -13 16 -21 21 -21
13z"></path>
<path d="M5951 559 c-24 -17 -41 -33 -38 -36 3 -2 14 4 24 14 10 10 30 26 43
35 14 9 22 17 19 17 -3 1 -25 -13 -48 -30z"></path>
<path d="M6730 580 c-9 -6 -10 -10 -3 -10 6 0 15 5 18 10 8 12 4 12 -15 0z"></path>
<path d="M6650 552 c-34 -11 -109 -17 -295 -22 -210 -5 -228 -7 -110 -9 77 -2
176 -2 219 -2 82 1 202 22 233 40 25 14 6 12 -47 -7z"></path>
<path d="M5968 523 c17 -2 47 -2 65 0 17 2 3 4 -33 4 -36 0 -50 -2 -32 -4z"></path>
<path d="M6430 420 c6 -11 13 -20 16 -20 2 0 0 9 -6 20 -6 11 -13 20 -16 20
-2 0 0 -9 6 -20z"></path>
<path d="M6526 237 c3 -10 9 -15 12 -12 3 3 0 11 -7 18 -10 9 -11 8 -5 -6z"></path>
<path d="M6680 166 c77 -81 176 -166 193 -166 7 0 -3 9 -22 21 -18 11 -79 63
-135 117 -66 63 -79 73 -36 28z"></path>
</g>
</svg>